FPGA/waveform.vcd
$date
	Wed Apr  9 12:27:33 2025
$end
$version
	Icarus Verilog
$end
$timescale
	1ps
$end
$scope module top_tb $end
$var wire 8 ! w_Rx_Byte [7:0] $end
$var wire 1 " trigg_led $end
$var wire 1 # signal_led $end
$var wire 1 $ reset_led $end
$var wire 1 % TX $end
$var reg 1 & clk $end
$var reg 1 ' reset_n $end
$var reg 1 ( signalSendt $end
$var reg 1 ) trigg $end
$scope module UART_RX_INST $end
$var wire 1 & i_Clock $end
$var wire 8 * o_Rx_Byte [7:0] $end
$var wire 1 + o_Rx_DV $end
$var wire 1 % i_Rx_Serial $end
$var reg 3 , r_Bit_Index [2:0] $end
$var reg 8 - r_Clock_Count [7:0] $end
$var reg 8 . r_Rx_Byte [7:0] $end
$var reg 1 / r_Rx_DV $end
$var reg 1 0 r_Rx_Data $end
$var reg 1 1 r_Rx_Data_R $end
$var reg 3 2 r_SM_Main [2:0] $end
$upscope $end
$scope module uut $end
$var wire 1 & clk $end
$var wire 1 3 pmod $end
$var wire 1 $ reset_led $end
$var wire 1 ' reset_n $end
$var wire 1 ( signalSendt $end
$var wire 1 # signal_led $end
$var wire 1 4 sw $end
$var wire 1 ) trigg $end
$var wire 1 5 trigg_1 $end
$var wire 1 6 trigg_2 $end
$var wire 1 7 trigg_3 $end
$var wire 1 8 trigg_4 $end
$var wire 1 " trigg_led $end
$var wire 1 9 tx_led $end
$var wire 136 : mainDataLine [135:0] $end
$var wire 1 ; l_valid_4 $end
$var wire 1 < l_valid_3 $end
$var wire 1 = l_valid_2 $end
$var wire 1 > l_valid_1 $end
$var wire 1 ? l_TX_done $end
$var wire 1 @ l_TX_active $end
$var wire 1 A l_TX_DV $end
$var wire 8 B l_TX_Byte [7:0] $end
$var wire 1 C done $end
$var wire 32 D data_4 [31:0] $end
$var wire 32 E data_3 [31:0] $end
$var wire 32 F data_2 [31:0] $end
$var wire 32 G data_1 [31:0] $end
$var wire 1 H comb_valid $end
$var wire 1 % TX $end
$scope module buffer $end
$var wire 1 A TX_DV $end
$var wire 1 & clk $end
$var wire 1 ' reset_n $end
$var wire 1 H valid $end
$var wire 136 I dataInn [135:0] $end
$var wire 1 ? TX_done $end
$var wire 1 @ TX_active $end
$var reg 8 J TX_Byte [7:0] $end
$var reg 8 K byteCounter [7:0] $end
$var reg 1 L dataReady $end
$var reg 1 C done $end
$var reg 1 M lastValid $end
$var reg 1 N mainState $end
$var reg 1 O nextState $end
$var reg 1 P r_TX_DV $end
$var reg 2 Q r_TxActiveReg [1:0] $end
$var reg 2 R r_TxDoneReg [1:0] $end
$var reg 136 S r_dataFrame [135:0] $end
$scope begin FSM $end
$upscope $end
$scope begin UART_Writer $end
$upscope $end
$upscope $end
$scope module comb $end
$var wire 1 & clk $end
$var wire 1 T done $end
$var wire 1 U reset_n $end
$var wire 1 ; valid_4 $end
$var wire 1 < valid_3 $end
$var wire 1 = valid_2 $end
$var wire 1 > valid_1 $end
$var wire 32 V dataInn_4 [31:0] $end
$var wire 32 W dataInn_3 [31:0] $end
$var wire 32 X dataInn_2 [31:0] $end
$var wire 32 Y dataInn_1 [31:0] $end
$var reg 136 Z dataOut [135:0] $end
$var reg 1 [ hasPulsed $end
$var reg 1 H valid $end
$scope begin blockName $end
$upscope $end
$upscope $end
$scope module count_1 $end
$var wire 1 & clk $end
$var wire 1 C done $end
$var wire 1 ' reset_n $end
$var wire 1 ( signalSendt $end
$var wire 1 5 trigg $end
$var reg 32 \ DataOut [31:0] $end
$var reg 3 ] mainState [2:0] $end
$var reg 3 ^ nextState [2:0] $end
$var reg 32 _ r_Counter [31:0] $end
$var reg 3 ` signalReg [2:0] $end
$var reg 3 a triggReg [2:0] $end
$var reg 1 > valid $end
$scope begin Counter $end
$upscope $end
$scope begin stateMachine $end
$upscope $end
$upscope $end
$scope module count_2 $end
$var wire 1 & clk $end
$var wire 1 C done $end
$var wire 1 ' reset_n $end
$var wire 1 ( signalSendt $end
$var wire 1 5 trigg $end
$var reg 32 b DataOut [31:0] $end
$var reg 3 c mainState [2:0] $end
$var reg 3 d nextState [2:0] $end
$var reg 32 e r_Counter [31:0] $end
$var reg 3 f signalReg [2:0] $end
$var reg 3 g triggReg [2:0] $end
$var reg 1 = valid $end
$scope begin Counter $end
$upscope $end
$scope begin stateMachine $end
$upscope $end
$upscope $end
$scope module count_3 $end
$var wire 1 & clk $end
$var wire 1 C done $end
$var wire 1 ' reset_n $end
$var wire 1 ( signalSendt $end
$var wire 1 5 trigg $end
$var reg 32 h DataOut [31:0] $end
$var reg 3 i mainState [2:0] $end
$var reg 3 j nextState [2:0] $end
$var reg 32 k r_Counter [31:0] $end
$var reg 3 l signalReg [2:0] $end
$var reg 3 m triggReg [2:0] $end
$var reg 1 < valid $end
$scope begin Counter $end
$upscope $end
$scope begin stateMachine $end
$upscope $end
$upscope $end
$scope module count_4 $end
$var wire 1 & clk $end
$var wire 1 C done $end
$var wire 1 ' reset_n $end
$var wire 1 ( signalSendt $end
$var wire 1 5 trigg $end
$var reg 32 n DataOut [31:0] $end
$var reg 3 o mainState [2:0] $end
$var reg 3 p nextState [2:0] $end
$var reg 32 q r_Counter [31:0] $end
$var reg 3 r signalReg [2:0] $end
$var reg 3 s triggReg [2:0] $end
$var reg 1 ; valid $end
$scope begin Counter $end
$upscope $end
$scope begin stateMachine $end
$upscope $end
$upscope $end
$scope module uart $end
$var wire 1 & i_Clock $end
$var wire 8 t i_Tx_Byte [7:0] $end
$var wire 1 A i_Tx_DV $end
$var wire 1 @ o_Tx_Active $end
$var wire 1 ? o_Tx_Done $end
$var reg 1 % o_Tx_Serial $end
$var reg 3 u r_Bit_Index [2:0] $end
$var reg 8 v r_Clock_Count [7:0] $end
$var reg 3 w r_SM_Main [2:0] $end
$var reg 1 x r_Tx_Active $end
$var reg 8 y r_Tx_Data [7:0] $end
$var reg 1 z r_Tx_Done $end
$upscope $end
$upscope $end
$upscope $end
$enddefinitions $end
#0
$dumpvars
0z
b0 y
0x
b0 w
b0 v
b0 u
b0 t
b0 s
b0 r
b0 q
b0 p
b0 o
b0 n
b0 m
b0 l
b0 k
b0 j
b0 i
b0 h
b0 g
b0 f
b0 e
b0 d
b0 c
b0 b
b0 a
b0 `
b0 _
b0 ^
b0 ]
b0 \
0[
b0 Z
b0 Y
b0 X
b0 W
b0 V
zU
zT
b0 S
b0 R
b0 Q
0P
0O
0N
0M
0L
b0 K
b0 J
b0 I
0H
b0 G
b0 F
b0 E
b0 D
0C
b0 B
0A
0@
0?
0>
0=
0<
0;
b0 :
x9
08
07
06
05
z4
z3
b0 2
11
10
0/
b0 .
b0 -
b0 ,
0+
b0 *
0)
0(
0'
0&
x%
0$
0#
0"
b0 !
$end
#20000
19
1%
x1
1&
#40000
0&
1$
1'
#60000
x0
11
1&
#80000
0&
0$
0'
#100000
10
1&
#120000
0&
#140000
1&
#160000
0&
#180000
b1 r
b1 l
b1 f
b1 `
1&
1#
1(
#200000
0&
#220000
b1 p
b1 j
b1 d
b1 ^
b10 r
b10 l
b10 f
b10 `
1&
0#
0(
#240000
0&
#260000
b1 o
b100 r
b1 i
b100 l
b1 c
b100 f
b1 ]
b100 `
1&
#280000
0&
#300000
b1 q
b1 r
b1 k
b1 l
b1 e
b1 f
b1 _
b1 `
1&
1#
1(
#320000
0&
#340000
b10 q
b10 r
b10 k
b10 l
b10 e
b10 f
b10 _
b10 `
1&
0#
0(
#360000
0&
#380000
b11 q
b100 r
b11 k
b100 l
b11 e
b100 f
b11 _
b100 `
1&
#400000
0&
#420000
b100 q
b0 r
b100 k
b0 l
b100 e
b0 f
b100 _
b0 `
1&
#440000
0&
#460000
b101 q
b101 k
b101 e
b101 _
1&
#480000
0&
#500000
b110 q
b110 k
b110 e
b110 _
1&
#520000
0&
#540000
b111 q
b111 k
b111 e
b111 _
1&
#560000
0&
#580000
b1000 q
b1000 k
b1000 e
b1000 _
1&
#600000
0&
#620000
b1001 q
b1001 k
b1001 e
b1001 _
1&
#640000
0&
#660000
b1010 q
b1010 k
b1010 e
b1010 _
1&
#680000
0&
#700000
b1011 q
b1011 k
b1011 e
b1011 _
1&
#720000
0&
#740000
b1100 q
b1100 k
b1100 e
b1100 _
1&
#760000
0&
#780000
b1101 q
b1101 k
b1101 e
b1101 _
1&
#800000
0&
#820000
b1110 q
b1110 k
b1110 e
b1110 _
1&
#840000
0&
#860000
b1111 q
b1111 k
b1111 e
b1111 _
1&
#880000
0&
#900000
b10000 q
b10000 k
b10000 e
b10000 _
1&
#920000
0&
#940000
b10001 q
b10001 k
b10001 e
b10001 _
1&
#960000
0&
#980000
b10010 q
b10010 k
b10010 e
b10010 _
1&
#1000000
0&
#1020000
b10011 q
b10011 k
b10011 e
b10011 _
1&
#1040000
0&
#1060000
b10100 q
b10100 k
b10100 e
b10100 _
1&
#1080000
0&
#1100000
b10101 q
b10101 k
b10101 e
b10101 _
1&
#1120000
0&
#1140000
b10110 q
b10110 k
b10110 e
b10110 _
1&
#1160000
0&
#1180000
b10111 q
b10111 k
b10111 e
b10111 _
1&
#1200000
0&
#1220000
b11000 q
b11000 k
b11000 e
b11000 _
1&
#1240000
0&
#1260000
b11001 q
b11001 k
b11001 e
b11001 _
1&
#1280000
0&
#1300000
b11010 q
b11010 k
b11010 e
b11010 _
1&
#1320000
0&
#1340000
b11011 q
b11011 k
b11011 e
b11011 _
1&
#1360000
0&
#1380000
b11100 q
b11100 k
b11100 e
b11100 _
1&
#1400000
0&
#1420000
b11101 q
b11101 k
b11101 e
b11101 _
1&
#1440000
0&
#1460000
b11110 q
b11110 k
b11110 e
b11110 _
1&
#1480000
0&
#1500000
b11111 q
b11111 k
b11111 e
b11111 _
1&
#1520000
0&
#1540000
b100000 q
b100000 k
b100000 e
b100000 _
1&
#1560000
0&
#1580000
b100001 q
b100001 k
b100001 e
b100001 _
1&
#1600000
0&
#1620000
b100010 q
b100010 k
b100010 e
b100010 _
1&
#1640000
0&
#1660000
b100011 q
b100011 k
b100011 e
b100011 _
1&
#1680000
0&
#1700000
b100100 q
b100100 k
b100100 e
b100100 _
1&
#1720000
0&
#1740000
b100101 q
b100101 k
b100101 e
b100101 _
1&
#1760000
0&
#1780000
b100110 q
b100110 k
b100110 e
b100110 _
1&
#1800000
0&
#1820000
b100111 q
b100111 k
b100111 e
b100111 _
1&
#1840000
0&
#1860000
b101000 q
b101000 k
b101000 e
b101000 _
1&
#1880000
0&
#1900000
b101001 q
b101001 k
b101001 e
b101001 _
1&
#1920000
0&
#1940000
b101010 q
b101010 k
b101010 e
b101010 _
1&
#1960000
0&
#1980000
b101011 q
b101011 k
b101011 e
b101011 _
1&
#2000000
0&
#2020000
b101100 q
b101100 k
b101100 e
b101100 _
1&
#2040000
0&
#2060000
b101101 q
b101101 k
b101101 e
b101101 _
1&
#2080000
0&
#2100000
b101110 q
b101110 k
b101110 e
b101110 _
1&
#2120000
0&
#2140000
b101111 q
b101111 k
b101111 e
b101111 _
1&
#2160000
0&
#2180000
b110000 q
b110000 k
b110000 e
b110000 _
1&
#2200000
0&
#2220000
b110001 q
b110001 k
b110001 e
b110001 _
1&
#2240000
0&
#2260000
b110010 q
b110010 k
b110010 e
b110010 _
1&
#2280000
0&
#2300000
b110011 q
b110011 k
b110011 e
b110011 _
1&
#2320000
0&
#2340000
b110100 q
b110100 k
b110100 e
b110100 _
1&
#2360000
0&
#2380000
b110101 q
b110101 k
b110101 e
b110101 _
1&
#2400000
0&
#2420000
b110110 q
b110110 k
b110110 e
b110110 _
1&
#2440000
0&
#2460000
b110111 q
b110111 k
b110111 e
b110111 _
1&
#2480000
0&
#2500000
b111000 q
b111000 k
b111000 e
b111000 _
1&
#2520000
0&
#2540000
b111001 q
b111001 k
b111001 e
b111001 _
1&
#2560000
0&
#2580000
b111010 q
b111010 k
b111010 e
b111010 _
1&
#2600000
0&
#2620000
b111011 q
b111011 k
b111011 e
b111011 _
1&
#2640000
0&
#2660000
b111100 q
b111100 k
b111100 e
b111100 _
1&
#2680000
0&
#2700000
b111101 q
b111101 k
b111101 e
b111101 _
1&
#2720000
0&
#2740000
b111110 q
b111110 k
b111110 e
b111110 _
1&
#2760000
0&
#2780000
b111111 q
b111111 k
b111111 e
b111111 _
1&
#2800000
0&
#2820000
b1000000 q
b1000000 k
b1000000 e
b1000000 _
1&
#2840000
0&
#2860000
b1000001 q
b1000001 k
b1000001 e
b1000001 _
1&
#2880000
0&
#2900000
b1000010 q
b1000010 k
b1000010 e
b1000010 _
1&
#2920000
0&
#2940000
b1000011 q
b1000011 k
b1000011 e
b1000011 _
1&
#2960000
0&
#2980000
b1000100 q
b1000100 k
b1000100 e
b1000100 _
1&
#3000000
0&
#3020000
b1000101 q
b1000101 k
b1000101 e
b1000101 _
1&
#3040000
0&
#3060000
b1000110 q
b1000110 k
b1000110 e
b1000110 _
1&
#3080000
0&
#3100000
b1000111 q
b1000111 k
b1000111 e
b1000111 _
1&
#3120000
0&
#3140000
b1001000 q
b1001000 k
b1001000 e
b1001000 _
1&
#3160000
0&
#3180000
b1001001 q
b1001001 k
b1001001 e
b1001001 _
1&
#3200000
0&
#3220000
b1001010 q
b1001010 k
b1001010 e
b1001010 _
1&
#3240000
0&
#3260000
b1001011 q
b1001011 k
b1001011 e
b1001011 _
1&
#3280000
0&
#3300000
b1001100 q
b1001100 k
b1001100 e
b1001100 _
1&
#3320000
0&
#3340000
b1001101 q
b1001101 k
b1001101 e
b1001101 _
1&
#3360000
0&
#3380000
b1001110 q
b1001110 k
b1001110 e
b1001110 _
1&
#3400000
0&
#3420000
b1001111 q
b1001111 k
b1001111 e
b1001111 _
1&
#3440000
0&
#3460000
b1010000 q
b1010000 k
b1010000 e
b1010000 _
1&
#3480000
0&
#3500000
b1010001 q
b1010001 k
b1010001 e
b1010001 _
1&
#3520000
0&
#3540000
b1010010 q
b1010010 k
b1010010 e
b1010010 _
1&
#3560000
0&
#3580000
b1010011 q
b1010011 k
b1010011 e
b1010011 _
1&
#3600000
0&
#3620000
b1010100 q
b1010100 k
b1010100 e
b1010100 _
1&
#3640000
0&
#3660000
b1010101 q
b1010101 k
b1010101 e
b1010101 _
1&
#3680000
0&
#3700000
b1010110 q
b1010110 k
b1010110 e
b1010110 _
1&
#3720000
0&
#3740000
b1010111 q
b1010111 k
b1010111 e
b1010111 _
1&
#3760000
0&
#3780000
b1011000 q
b1011000 k
b1011000 e
b1011000 _
1&
#3800000
0&
#3820000
b1011001 q
b1011001 k
b1011001 e
b1011001 _
1&
#3840000
0&
#3860000
b1011010 q
b1011010 k
b1011010 e
b1011010 _
1&
#3880000
0&
#3900000
b1011011 q
b1011011 k
b1011011 e
b1011011 _
1&
#3920000
0&
#3940000
b1011100 q
b1011100 k
b1011100 e
b1011100 _
1&
#3960000
0&
#3980000
b1011101 q
b1011101 k
b1011101 e
b1011101 _
1&
#4000000
0&
#4020000
b1011110 q
b1011110 k
b1011110 e
b1011110 _
1&
#4040000
0&
#4060000
b1011111 q
b1011111 k
b1011111 e
b1011111 _
1&
#4080000
0&
#4100000
b1100000 q
b1100000 k
b1100000 e
b1100000 _
1&
#4120000
0&
#4140000
b1100001 q
b1100001 k
b1100001 e
b1100001 _
1&
#4160000
0&
#4180000
b1100010 q
b1100010 k
b1100010 e
b1100010 _
1&
#4200000
0&
#4220000
b1100011 q
b1100011 k
b1100011 e
b1100011 _
1&
#4240000
0&
#4260000
b1100100 q
b1100100 k
b1100100 e
b1100100 _
1&
#4280000
0&
#4300000
b1100101 q
b1100101 k
b1100101 e
b1100101 _
1&
#4320000
0&
#4340000
b1100110 q
b1100110 k
b1100110 e
b1100110 _
1&
#4360000
0&
#4380000
b1100111 q
b1100111 k
b1100111 e
b1100111 _
1&
#4400000
0&
#4420000
b1101000 q
b1101000 k
b1101000 e
b1101000 _
1&
#4440000
0&
#4460000
b1101001 q
b1101001 k
b1101001 e
b1101001 _
1&
#4480000
0&
#4500000
b1101010 q
b1101010 k
b1101010 e
b1101010 _
1&
#4520000
0&
#4540000
b1101011 q
b1101011 k
b1101011 e
b1101011 _
1&
#4560000
0&
#4580000
b1101100 q
b1101100 k
b1101100 e
b1101100 _
1&
#4600000
0&
#4620000
b1101101 q
b1101101 k
b1101101 e
b1101101 _
1&
#4640000
0&
#4660000
b1101110 q
b1101110 k
b1101110 e
b1101110 _
1&
#4680000
0&
#4700000
b1101111 q
b1101111 k
b1101111 e
b1101111 _
1&
#4720000
0&
#4740000
b1110000 q
b1110000 k
b1110000 e
b1110000 _
1&
#4760000
0&
#4780000
b1110001 q
b1110001 k
b1110001 e
b1110001 _
1&
#4800000
0&
#4820000
b1110010 q
b1110010 k
b1110010 e
b1110010 _
1&
#4840000
0&
#4860000
b1110011 q
b1110011 k
b1110011 e
b1110011 _
1&
#4880000
0&
#4900000
b1110100 q
b1110100 k
b1110100 e
b1110100 _
1&
#4920000
0&
#4940000
b1110101 q
b1110101 k
b1110101 e
b1110101 _
1&
#4960000
0&
#4980000
b1110110 q
b1110110 k
b1110110 e
b1110110 _
1&
#5000000
0&
#5020000
b1110111 q
b1110111 k
b1110111 e
b1110111 _
1&
#5040000
0&
#5060000
b1111000 q
b1111000 k
b1111000 e
b1111000 _
1&
#5080000
0&
#5100000
b1111001 q
b1111001 k
b1111001 e
b1111001 _
1&
#5120000
0&
#5140000
b1111010 q
b1111010 k
b1111010 e
b1111010 _
1&
#5160000
0&
#5180000
b1111011 q
b1111011 k
b1111011 e
b1111011 _
1&
#5200000
0&
#5220000
b1111100 q
b1111100 k
b1111100 e
b1111100 _
1&
#5240000
0&
#5260000
b1111101 q
b1111101 k
b1111101 e
b1111101 _
1&
#5280000
0&
#5300000
b1111110 q
b1111110 k
b1111110 e
b1111110 _
1&
#5320000
0&
#5340000
b1111111 q
b1 s
b1111111 k
b1 m
b1111111 e
b1 g
b1111111 _
b1 a
1&
15
16
17
18
1"
1)
#5360000
0&
#5380000
b10 p
b10 j
b10 d
b10 ^
b10000000 q
b11 s
b10000000 k
b11 m
b10000000 e
b11 g
b10000000 _
b11 a
1&
#5400000
0&
#5420000
b0 p
b0 j
b0 d
b0 ^
b10000001 q
b10 o
b110 s
b10000001 k
b10 i
b110 m
b10000001 e
b10 c
b110 g
b10000001 _
b10 ]
b110 a
1&
05
06
07
08
0"
0)
#5440000
0&
#5460000
1;
b10000001 D
b10000001 V
b10000001 n
b0 o
b101 s
1<
b10000001 E
b10000001 W
b10000001 h
b0 i
b101 m
1=
b10000001 F
b10000001 X
b10000001 b
b0 c
b101 g
1>
b10000001 G
b10000001 Y
b10000001 \
b0 ]
b101 a
1&
15
16
17
18
1"
1)
#5480000
0&
#5500000
1O
b0 q
b10 s
b0 k
b10 m
b0 e
b10 g
b0 _
b10 a
1[
1H
b1000000100000000000000000000000010000001000000000000000000000000100000010000000000000000000000001000000111111111 :
b1000000100000000000000000000000010000001000000000000000000000000100000010000000000000000000000001000000111111111 I
b1000000100000000000000000000000010000001000000000000000000000000100000010000000000000000000000001000000111111111 Z
1&
05
06
07
08
0"
0)
#5520000
0&
#5540000
1N
1M
b100 s
b100 m
b100 g
b100 a
0H
1&
#5560000
0&
#5580000
1L
b1000000100000000000000000000000010000001000000000000000000000000100000010000000000000000000000001000000111111111 S
0M
b0 s
b0 m
b0 g
b0 a
1&
#5600000
0&
#5620000
1A
1P
1&
#5640000
0&
#5660000
b1 w
1@
1x
1&
#5680000
0&
#5700000
b1 v
09
0%
b1 Q
1&
#5720000
0&
#5740000
01
b10 v
b11 Q
1&
#5760000
0&
#5780000
b11 v
00
1&
#5800000
0&
#5820000
b1 2
b100 v
1&
#5840000
0&
#5860000
b101 v
b1 -
1&
#5880000
0&
#5900000
b10 -
b110 v
1&
#5920000
0&
#5940000
b111 v
b11 -
1&
#5960000
0&
#5980000
b100 -
b1000 v
1&
#6000000
0&
#6020000
b1001 v
b101 -
1&
#6040000
0&
#6060000
b110 -
b1010 v
1&
#6080000
0&
#6100000
b1011 v
b111 -
1&
#6120000
0&
#6140000
b1000 -
b1100 v
1&
#6160000
0&
#6180000
b1101 v
b1001 -
1&
#6200000
0&
#6220000
b1010 -
b1110 v
1&
#6240000
0&
#6260000
b1111 v
b1011 -
1&
#6280000
0&
#6300000
b1100 -
b10000 v
1&
#6320000
0&
#6340000
b10001 v
b1101 -
1&
#6360000
0&
#6380000
b1110 -
b10010 v
1&
#6400000
0&
#6420000
b10011 v
b1111 -
1&
#6440000
0&
#6460000
b10000 -
b10100 v
1&
#6480000
0&
#6500000
b10101 v
b10001 -
1&
#6520000
0&
#6540000
b10010 -
b10110 v
1&
#6560000
0&
#6580000
b10111 v
b10011 -
1&
#6600000
0&
#6620000
b10100 -
b11000 v
1&
#6640000
0&
#6660000
b11001 v
b10101 -
1&
#6680000
0&
#6700000
b10110 -
b11010 v
1&
#6720000
0&
#6740000
b11011 v
b10111 -
1&
#6760000
0&
#6780000
b11000 -
b11100 v
1&
#6800000
0&
#6820000
b11101 v
b11001 -
1&
#6840000
0&
#6860000
b11010 -
b11110 v
1&
#6880000
0&
#6900000
b11111 v
b11011 -
1&
#6920000
0&
#6940000
b11100 -
b100000 v
1&
#6960000
0&
#6980000
b100001 v
b11101 -
1&
#7000000
0&
#7020000
b11110 -
b100010 v
1&
#7040000
0&
#7060000
b100011 v
b11111 -
1&
#7080000
0&
#7100000
b100000 -
b100100 v
1&
#7120000
0&
#7140000
b100101 v
b100001 -
1&
#7160000
0&
#7180000
b100010 -
b100110 v
1&
#7200000
0&
#7220000
b100111 v
b100011 -
1&
#7240000
0&
#7260000
b100100 -
b101000 v
1&
#7280000
0&
#7300000
b101001 v
b100101 -
1&
#7320000
0&
#7340000
b100110 -
b101010 v
1&
#7360000
0&
#7380000
b101011 v
b100111 -
1&
#7400000
0&
#7420000
b101000 -
b101100 v
1&
#7440000
0&
#7460000
b101101 v
b101001 -
1&
#7480000
0&
#7500000
b101010 -
b101110 v
1&
#7520000
0&
#7540000
b101111 v
b101011 -
1&
#7560000
0&
#7580000
b101100 -
b110000 v
1&
#7600000
0&
#7620000
b110001 v
b101101 -
1&
#7640000
0&
#7660000
b101110 -
b110010 v
1&
#7680000
0&
#7700000
b110011 v
b101111 -
1&
#7720000
0&
#7740000
b110000 -
b110100 v
1&
#7760000
0&
#7780000
b110101 v
b110001 -
1&
#7800000
0&
#7820000
b110010 -
b110110 v
1&
#7840000
0&
#7860000
b110111 v
b110011 -
1&
#7880000
0&
#7900000
b110100 -
b111000 v
1&
#7920000
0&
#7940000
b111001 v
b110101 -
1&
#7960000
0&
#7980000
b110110 -
b111010 v
1&
#8000000
0&
#8020000
b111011 v
b110111 -
1&
#8040000
0&
#8060000
b111000 -
b111100 v
1&
#8080000
0&
#8100000
b111101 v
b111001 -
1&
#8120000
0&
#8140000
b111010 -
b111110 v
1&
#8160000
0&
#8180000
b111111 v
b111011 -
1&
#8200000
0&
#8220000
b111100 -
b1000000 v
1&
#8240000
0&
#8260000
b1000001 v
b111101 -
1&
#8280000
0&
#8300000
b111110 -
b1000010 v
1&
#8320000
0&
#8340000
b1000011 v
b111111 -
1&
#8360000
0&
#8380000
b1000000 -
b1000100 v
1&
#8400000
0&
#8420000
b1000101 v
b1000001 -
1&
#8440000
0&
#8460000
b1000010 -
b1000110 v
1&
#8480000
0&
#8500000
b1000111 v
b1000011 -
1&
#8520000
0&
#8540000
b1000100 -
b1001000 v
1&
#8560000
0&
#8580000
b1001001 v
b1000101 -
1&
#8600000
0&
#8620000
b1000110 -
b1001010 v
1&
#8640000
0&
#8660000
b1001011 v
b1000111 -
1&
#8680000
0&
#8700000
b1001000 -
b1001100 v
1&
#8720000
0&
#8740000
b1001101 v
b1001001 -
1&
#8760000
0&
#8780000
b1001010 -
b1001110 v
1&
#8800000
0&
#8820000
b1001111 v
b1001011 -
1&
#8840000
0&
#8860000
b1001100 -
b1010000 v
1&
#8880000
0&
#8900000
b1010001 v
b1001101 -
1&
#8920000
0&
#8940000
b1001110 -
b1010010 v
1&
#8960000
0&
#8980000
b1010011 v
b1001111 -
1&
#9000000
0&
#9020000
b1010000 -
b1010100 v
1&
#9040000
0&
#9060000
b1010101 v
b1010001 -
1&
#9080000
0&
#9100000
b1010010 -
b1010110 v
1&
#9120000
0&
#9140000
b1010111 v
b1010011 -
1&
#9160000
0&
#9180000
b1010100 -
b1011000 v
1&
#9200000
0&
#9220000
b1011001 v
b1010101 -
1&
#9240000
0&
#9260000
b1010110 -
b1011010 v
1&
#9280000
0&
#9300000
b1011011 v
b1010111 -
1&
#9320000
0&
#9340000
b1011000 -
b1011100 v
1&
#9360000
0&
#9380000
b1011101 v
b1011001 -
1&
#9400000
0&
#9420000
b1011010 -
b1011110 v
1&
#9440000
0&
#9460000
b1011111 v
b1011011 -
1&
#9480000
0&
#9500000
b1011100 -
b1100000 v
1&
#9520000
0&
#9540000
b1100001 v
b1011101 -
1&
#9560000
0&
#9580000
b1011110 -
b1100010 v
1&
#9600000
0&
#9620000
b1100011 v
b1011111 -
1&
#9640000
0&
#9660000
b1100000 -
b1100100 v
1&
#9680000
0&
#9700000
b1100101 v
b1100001 -
1&
#9720000
0&
#9740000
b1100010 -
b1100110 v
1&
#9760000
0&
#9780000
b1100111 v
b1100011 -
1&
#9800000
0&
#9820000
b1100100 -
b1101000 v
1&
#9840000
0&
#9860000
b1101001 v
b1100101 -
1&
#9880000
0&
#9900000
b1100110 -
b1101010 v
1&
#9920000
0&
#9940000
b1101011 v
b1100111 -
1&
#9960000
0&
#9980000
b1101000 -
b1101100 v
1&
#10000000
0&
#10020000
b1101101 v
b1101001 -
1&
#10040000
0&
#10060000
b1101010 -
b1101110 v
1&
#10080000
0&
#10100000
b1101111 v
b1101011 -
1&
#10120000
0&
#10140000
b1101100 -
b1110000 v
1&
#10160000
0&
#10180000
b1110001 v
b10 2
b0 -
1&
#10200000
0&
#10220000
b1 -
b1110010 v
1&
#10240000
0&
#10260000
b1110011 v
b10 -
1&
#10280000
0&
#10300000
b11 -
b1110100 v
1&
#10320000
0&
#10340000
b1110101 v
b100 -
1&
#10360000
0&
#10380000
b101 -
b1110110 v
1&
#10400000
0&
#10420000
b1110111 v
b110 -
1&
#10440000
0&
#10460000
b111 -
b1111000 v
1&
#10480000
0&
#10500000
b1111001 v
b1000 -
1&
#10520000
0&
#10540000
b1001 -
b1111010 v
1&
#10560000
0&
#10580000
b1111011 v
b1010 -
1&
#10600000
0&
#10620000
b1011 -
b1111100 v
1&
#10640000
0&
#10660000
b1111101 v
b1100 -
1&
#10680000
0&
#10700000
b1101 -
b1111110 v
1&
#10720000
0&
#10740000
b1111111 v
b1110 -
1&
#10760000
0&
#10780000
b1111 -
b10000000 v
1&
#10800000
0&
#10820000
b10000001 v
b10000 -
1&
#10840000
0&
#10860000
b10001 -
b10000010 v
1&
#10880000
0&
#10900000
b10000011 v
b10010 -
1&
#10920000
0&
#10940000
b10011 -
b10000100 v
1&
#10960000
0&
#10980000
b10000101 v
b10100 -
1&
#11000000
0&
#11020000
b10101 -
b10000110 v
1&
#11040000
0&
#11060000
b10000111 v
b10110 -
1&
#11080000
0&
#11100000
b10111 -
b10001000 v
1&
#11120000
0&
#11140000
b10001001 v
b11000 -
1&
#11160000
0&
#11180000
b11001 -
b10001010 v
1&
#11200000
0&
#11220000
b10001011 v
b11010 -
1&
#11240000
0&
#11260000
b11011 -
b10001100 v
1&
#11280000
0&
#11300000
b10001101 v
b11100 -
1&
#11320000
0&
#11340000
b11101 -
b10001110 v
1&
#11360000
0&
#11380000
b10001111 v
b11110 -
1&
#11400000
0&
#11420000
b11111 -
b10010000 v
1&
#11440000
0&
#11460000
b10010001 v
b100000 -
1&
#11480000
0&
#11500000
b100001 -
b10010010 v
1&
#11520000
0&
#11540000
b10010011 v
b100010 -
1&
#11560000
0&
#11580000
b100011 -
b10010100 v
1&
#11600000
0&
#11620000
b10010101 v
b100100 -
1&
#11640000
0&
#11660000
b100101 -
b10010110 v
1&
#11680000
0&
#11700000
b10010111 v
b100110 -
1&
#11720000
0&
#11740000
b100111 -
b10011000 v
1&
#11760000
0&
#11780000
b10011001 v
b101000 -
1&
#11800000
0&
#11820000
b101001 -
b10011010 v
1&
#11840000
0&
#11860000
b10011011 v
b101010 -
1&
#11880000
0&
#11900000
b101011 -
b10011100 v
1&
#11920000
0&
#11940000
b10011101 v
b101100 -
1&
#11960000
0&
#11980000
b101101 -
b10011110 v
1&
#12000000
0&
#12020000
b10011111 v
b101110 -
1&
#12040000
0&
#12060000
b101111 -
b10100000 v
1&
#12080000
0&
#12100000
b10100001 v
b110000 -
1&
#12120000
0&
#12140000
b110001 -
b10100010 v
1&
#12160000
0&
#12180000
b10100011 v
b110010 -
1&
#12200000
0&
#12220000
b110011 -
b10100100 v
1&
#12240000
0&
#12260000
b10100101 v
b110100 -
1&
#12280000
0&
#12300000
b110101 -
b10100110 v
1&
#12320000
0&
#12340000
b10100111 v
b110110 -
1&
#12360000
0&
#12380000
b110111 -
b10101000 v
1&
#12400000
0&
#12420000
b10101001 v
b111000 -
1&
#12440000
0&
#12460000
b111001 -
b10101010 v
1&
#12480000
0&
#12500000
b10101011 v
b111010 -
1&
#12520000
0&
#12540000
b111011 -
b10101100 v
1&
#12560000
0&
#12580000
b10101101 v
b111100 -
1&
#12600000
0&
#12620000
b111101 -
b10101110 v
1&
#12640000
0&
#12660000
b10101111 v
b111110 -
1&
#12680000
0&
#12700000
b111111 -
b10110000 v
1&
#12720000
0&
#12740000
b10110001 v
b1000000 -
1&
#12760000
0&
#12780000
b1000001 -
b10110010 v
1&
#12800000
0&
#12820000
b10110011 v
b1000010 -
1&
#12840000
0&
#12860000
b1000011 -
b10110100 v
1&
#12880000
0&
